<?xml version="1.0" encoding="utf-8"?>
<!-- Generator: Adobe Illustrator 22.0.0, SVG Export Plug-In . SVG Version: 6.00 Build 0)  -->
<svg version="1.1" id="Capa_1" xmlns="http://www.w3.org/2000/svg" xmlns:xlink="http://www.w3.org/1999/xlink" x="0px" y="0px"
	 width="210px" height="53px" viewBox="0 0 210 53" style="enable-background:new 0 0 210 53;" xml:space="preserve">
<style type="text/css">
	.st0{fill:#65B1F1;}
	.st1{fill:#DD4D8C;}
	.st2{fill:#FFD264;}
	.st3{font-family:'MyriadPro-Regular';}
	.st4{font-size:15.479px;}
	.st5{font-size:6.1079px;}
	.st6{font-size:8.0279px;}
	.st7{font-size:12.9415px;}
</style>
<g>
	<g>
		<polygon class="st0" points="102.5,2.3 110.7,16.5 119,30.7 102.5,30.7 86.1,30.7 94.3,16.5 		"/>
		
			<ellipse transform="matrix(0.2329 -0.9725 0.9725 0.2329 -0.4976 32.3692)" class="st1" cx="20.3" cy="16.5" rx="14.2" ry="14.3"/>
		<rect x="175.6" y="2.3" class="st2" width="28.4" height="28.4"/>
	</g>
	<g>
		<g>
			<g>
				<path d="M12.7,44.7c-1.2-1-0.4-4.9-0.4-4.9s1.3,0,1.5,0c0.2,0,0.8-0.1,0.8-0.8c0-0.9-0.8-0.8-0.8-0.8s-4.1,0-5.5,0
					c-0.9,0-1.7,1-2.2,1.8c-0.3,0.4-0.1,0.5,0.3,0.3c1.5-0.6,1.9-0.4,1.9-0.4c0.1,0.5,0.1,2.8-0.2,3.7c-0.4,0.9-1.1,1.9-0.1,2.5
					c0.8,0.5,1.7-0.5,1.6-2.1c-0.1-0.9-0.1-4.1-0.1-4.1H11c-0.1,0.5-0.3,3.1,0,4.6c0.3,2.5,3,2.1,3.5,0.6c0.1-0.4,0.1-0.7,0-0.9
					c-0.2-0.4-0.5-0.4-0.4-0.3c0,0.1,0,0.3,0,0.4C14,44.6,13.2,45.1,12.7,44.7z"/>
			</g>
		</g>
		<text transform="matrix(1 0 0 1 16.5835 46.2393)" class="st3 st4">x r</text>
		<text transform="matrix(1 0 0 1 32.5894 40.3516)" class="st3 st5">2</text>
	</g>
	<g>
		<path d="M20.3,16.5c1.2-0.1,2.4-0.2,3.6-0.2c1.2-0.1,2.4-0.1,3.6-0.1c1.2,0,2.4,0,3.6,0.1c1.2,0,2.4,0.1,3.6,0.2
			c-1.2,0.1-2.4,0.2-3.6,0.2c-1.2,0.1-2.4,0.1-3.6,0.1c-1.2,0-2.4,0-3.6-0.1C22.6,16.7,21.5,16.6,20.3,16.5z"/>
	</g>
	<text transform="matrix(1 0 0 1 21.6257 15.6685)" class="st3 st6">r</text>
	<text transform="matrix(1 0 0 1 83.0762 44.1152)" class="st3 st7">(b x h)/2</text>
	<text transform="matrix(1 0 0 1 174.5763 45.311)" class="st3 st4">b x h</text>
</g>
</svg>
